…
2.  Transform `dat4` quantitative columns (wide format) into separate
    independent variables (long format). This is achieved using
    `pivot_longer_spec()`. This transformation is best understood by
    looking at the specification given to `pivot_longer_spec()`,
    i.e. data frame `wide_to_long_spec` (see `R/run_analysis.R`).

In the end, the tidy data set `dat5` consists of `11520` observations
(averages for the combination `subject`/`activity`) and `9` columns.

``` r
dat5 <- read_csv(file = "data/dat5.csv", show_col_types = FALSE, name_repair = 'minimal')
dat5
#> # A tibble: 11,520 × 9
#>    subject activity domain acc_component motion derivative axis  statistic
#>      <dbl> <chr>    <chr>  <chr>         <chr>       <dbl> <chr> <chr>    
#>  1       1 LAYING   time   body          linear          2 Z     mean     
#>  2       1 LAYING   time   body          linear          2 X     sd       
#>  3       1 LAYING   time   body          linear          2 Y     sd       
#>  4       1 LAYING   time   body          linear          2 Z     sd       
#>  5       1 LAYING   time   gravity       linear          2 X     mean     
#>  6       1 LAYING   time   gravity       linear          2 Y     mean     
#>  7       1 LAYING   time   gravity       linear          2 Z     mean     
#>  8       1 LAYING   time   gravity       linear          2 X     sd       
#>  9       1 LAYING   time   gravity       linear          2 Y     sd       
#> 10       1 LAYING   time   gravity       linear          2 Z     sd       
#> # … with 11,510 more rows, and 1 more variable: value <dbl>
```
…
